Introduction to the scFeatureFilter package
…
1.3 Installation

Instructions to arrive shortly.

2 Integrated usage

You can use the package in a single function call, that will filter the expression matrix to keep only the most informative highly expressed features:

# example dataset included with the package:
scData_hESC

## # A tibble: 60,468 x 33
##           tracking_id GSM922224_hESCpassage0_Cell4_0
##                 <chr>                          <dbl>
## 1  ENSG00000000003.13                      55.332000
## 2   ENSG00000000005.5                       0.000000
## 3  ENSG00000000419.11                      53.974500
## 4  ENSG00000000457.12                       0.923849
## 5  ENSG00000000460.15                       7.078980
## 6  ENSG00000000938.11                       0.000000
## 7  ENSG00000000971.14                       0.000000
## 8  ENSG00000001036.12                       7.882880
## 9   ENSG00000001084.9                      21.156300
## 10 ENSG00000001167.13                       3.591210
## # ... with 60,458 more rows, and 31 more variables:
## #   GSM922225_hESCpassage0_Cell5_0 <dbl>,
## #   GSM922226_hESCpassage0_Cell6_0 <dbl>,
## #   GSM922227_hESCpassage0_Cell7_0 <dbl>,
## #   GSM922228_hESCpassage0_Cell8_0 <dbl>,
## #   GSM922230_hESCpassage0_Cell10_0 <dbl>,
## #   GSM922250_hESCpassage10_Cell1_0 <dbl>,
## #   GSM922251_hESCpassage10_Cell2_0 <dbl>,
## #   GSM922252_hESCpassage10_Cell3_0 <dbl>,
…
# filtering of the dataset with a single function call:
sc_feature_filter(scData_hESC)

## Mean expression of last top gene: 2114.40221875

## Number of windows: 18

## # A tibble: 7,442 x 33
##             geneName GSM922224_hESCpassage0_Cell4_0
##                <chr>                          <dbl>
## 1  ENSG00000228253.1                       40272.50
## 2  ENSG00000198888.2                       30747.10
## 3  ENSG00000198712.1                       11056.80
## 4  ENSG00000211459.2                       17099.70
## 5  ENSG00000212907.2                       19984.90
## 6  ENSG00000198899.2                       11289.60
## 7  ENSG00000198727.2                        7005.42
## 8  ENSG00000210082.2                       17238.80
## 9  ENSG00000198886.2                       14995.40
## 10 ENSG00000198938.2                        9675.66
## # ... with 7,432 more rows, and 31 more variables:
## #   GSM922225_hESCpassage0_Cell5_0 <dbl>,
## #   GSM922226_hESCpassage0_Cell6_0 <dbl>,
## #   GSM922227_hESCpassage0_Cell7_0 <dbl>,
## #   GSM922228_hESCpassage0_Cell8_0 <dbl>,
## #   GSM922230_hESCpassage0_Cell10_0 <dbl>,
## #   GSM922250_hESCpassage10_Cell1_0 <dbl>,
## #   GSM922251_hESCpassage10_Cell2_0 <dbl>,
## #   GSM922252_hESCpassage10_Cell3_0 <dbl>,
…
3 Detailed usage

3.1 Loading data

scFeatureFilter need an expression matrix either as a matrix, a data.frame or a tibble R object. Features should be in rows, while cells should be in columns. Support of Bioconductors expression set objects will arrive shortly. An example dataset is supplied with the package:

scData_hESC

## # A tibble: 60,468 x 33
##           tracking_id GSM922224_hESCpassage0_Cell4_0
##                 <chr>                          <dbl>
## 1  ENSG00000000003.13                      55.332000
## 2   ENSG00000000005.5                       0.000000
## 3  ENSG00000000419.11                      53.974500
## 4  ENSG00000000457.12                       0.923849
## 5  ENSG00000000460.15                       7.078980
## 6  ENSG00000000938.11                       0.000000
## 7  ENSG00000000971.14                       0.000000
## 8  ENSG00000001036.12                       7.882880
## 9   ENSG00000001084.9                      21.156300
## 10 ENSG00000001167.13                       3.591210
## # ... with 60,458 more rows, and 31 more variables:
## #   GSM922225_hESCpassage0_Cell5_0 <dbl>,
## #   GSM922226_hESCpassage0_Cell6_0 <dbl>,
## #   GSM922227_hESCpassage0_Cell7_0 <dbl>,
## #   GSM922228_hESCpassage0_Cell8_0 <dbl>,
## #   GSM922230_hESCpassage0_Cell10_0 <dbl>,
## #   GSM922250_hESCpassage10_Cell1_0 <dbl>,
## #   GSM922251_hESCpassage10_Cell2_0 <dbl>,
## #   GSM922252_hESCpassage10_Cell3_0 <dbl>,
…
The example dataset was processed by Mantsoki et al. (2016), data from human Embryonic Stem cells was generated by Yan et al. (2013).

3.2 Binning data

Firstly, we add a mean expression and a coefficient of variation column to the expression matrix using the calculate_cvs function:

calculate_cvs(scData_hESC)

## # A tibble: 17,929 x 36
##              geneName      mean        sd        cv
##                 <chr>     <dbl>     <dbl>     <dbl>
## 1  ENSG00000000003.13 70.022328 73.332127 1.0472678
## 2   ENSG00000000005.5  1.000291  2.527535 2.5267987
## 3  ENSG00000000419.11 80.991847 71.534922 0.8832361
## 4  ENSG00000000457.12  1.590995  1.804686 1.1343132
## 5  ENSG00000000460.15  9.531320  8.444314 0.8859543
## 6  ENSG00000001036.12 21.719122 16.969845 0.7813320
## 7   ENSG00000001084.9 17.991673 15.616758 0.8679992
## 8  ENSG00000001167.13  4.106190  6.644126 1.6180755
## 9  ENSG00000001460.16  7.222735 17.157835 2.3755317
## 10 ENSG00000001461.15  4.942530  7.396355 1.4964715
## # ... with 17,919 more rows, and 32 more variables:
## #   GSM922224_hESCpassage0_Cell4_0 <dbl>,
## #   GSM922225_hESCpassage0_Cell5_0 <dbl>,
## #   GSM922226_hESCpassage0_Cell6_0 <dbl>,
## #   GSM922227_hESCpassage0_Cell7_0 <dbl>,
## #   GSM922228_hESCpassage0_Cell8_0 <dbl>,
## #   GSM922230_hESCpassage0_Cell10_0 <dbl>,
## #   GSM922250_hESCpassage10_Cell1_0 <dbl>,
## #   GSM922251_hESCpassage10_Cell2_0 <dbl>,
…
We then define the top window (or reference bin) with the define_top_genes function, and the other bins withe the bin_scdata function:

scData_hESC %>%
    calculate_cvs %>%
    define_top_genes(window_size = 100) %>%
    bin_scdata(window_size = 1000)
## Mean expression of last top gene: 2114.40221875
## Number of windows: 18
## # A tibble: 17,929 x 37
##             geneName     mean       sd        cv   bin
##                <chr>    <dbl>    <dbl>     <dbl> <dbl>
## 1  ENSG00000228253.1 58449.71 43459.80 0.7435418     1
## 2  ENSG00000198888.2 30454.17 32770.73 1.0760669     1
## 3  ENSG00000198712.1 23484.34 26032.12 1.1084885     1
## 4  ENSG00000211459.2 21988.64 33333.64 1.5159481     1
## 5  ENSG00000212907.2 18748.69 18500.55 0.9867646     1
## 6  ENSG00000198899.2 17556.83 12659.94 0.7210835     1
## 7  ENSG00000198727.2 16748.35 16227.66 0.9689110     1
## 8  ENSG00000210082.2 16013.17 20764.97 1.2967434     1
## 9  ENSG00000198886.2 13890.04 13973.37 1.0059990     1
## 10 ENSG00000198938.2 11299.42  7602.17 0.6727927     1
## # ... with 17,919 more rows, and 32 more variables:
## #   GSM922224_hESCpassage0_Cell4_0 <dbl>,
## #   GSM922225_hESCpassage0_Cell5_0 <dbl>,
## #   GSM922226_hESCpassage0_Cell6_0 <dbl>,
## #   GSM922227_hESCpassage0_Cell7_0 <dbl>,
## #   GSM922228_hESCpassage0_Cell8_0 <dbl>,
## #   GSM922230_hESCpassage0_Cell10_0 <dbl>,
## #   GSM922250_hESCpassage10_Cell1_0 <dbl>,
## #   GSM922251_hESCpassage10_Cell2_0 <dbl>,
…
The coloured lines indicate the correlation coefficient distributions for each bins compared to the reference bin (bin 1 show the autocorrelation of the reference bin), while the thicker blue lines with grey area (barely visible) represents the correlation coefficient distributions for each bins compared to the randomized control bins.

Notice how the correlation distributions shift from high to low value as the bin number is increasing (i.e.as the mean expression level of the features is decreasing).

Note: the absolute_cc = TRUE option, which is the default, indicate that the package will work with the absolute value of correlation coefficient. Therefore, highly negatively correlated features will count as highly correlated. It also produces clearer plots, and reduce the emphasis on non-symmetrical, near 0, shifts of correlation values that are not interpretable.

We can quantify the steady decrease of correlation values as feature expression goes down using the get_mean_median function:

metrics <- get_mean_median(corDistrib)
metrics

## # A tibble: 72 x 4
##      bin                window      mean    median
##    <dbl>                 <chr>     <dbl>     <dbl>
## 1      1 shuffled_top_window_1 0.1284336 0.1101979
## 2      1 shuffled_top_window_2 0.1338578 0.1165175
## 3      1 shuffled_top_window_3 0.1186047 0.1051447
## 4      1            top_window 0.7184050 0.8439585
## 5      2 shuffled_top_window_1 0.1311751 0.1074132
## 6      2 shuffled_top_window_2 0.1316568 0.1079013
## 7      2 shuffled_top_window_3 0.1236217 0.1001763
## 8      2            top_window 0.5136430 0.5279849
## 9      3 shuffled_top_window_1 0.1311676 0.1044669
## 10     3 shuffled_top_window_2 0.1296026 0.1018623
## # ... with 62 more rows
…
dim(scData_hESC)

## [1] 60468    33

dim(filtered_data)

## [1] 7442   33

filtered_data

## # A tibble: 7,442 x 33
##             geneName GSM922224_hESCpassage0_Cell4_0
##                <chr>                          <dbl>
## 1  ENSG00000228253.1                       40272.50
## 2  ENSG00000198888.2                       30747.10
## 3  ENSG00000198712.1                       11056.80
## 4  ENSG00000211459.2                       17099.70
## 5  ENSG00000212907.2                       19984.90
## 6  ENSG00000198899.2                       11289.60
## 7  ENSG00000198727.2                        7005.42
## 8  ENSG00000210082.2                       17238.80
## 9  ENSG00000198886.2                       14995.40
## 10 ENSG00000198938.2                        9675.66
## # ... with 7,432 more rows, and 31 more variables:
## #   GSM922225_hESCpassage0_Cell5_0 <dbl>,
## #   GSM922226_hESCpassage0_Cell6_0 <dbl>,
## #   GSM922227_hESCpassage0_Cell7_0 <dbl>,
## #   GSM922228_hESCpassage0_Cell8_0 <dbl>,
## #   GSM922230_hESCpassage0_Cell10_0 <dbl>,
## #   GSM922250_hESCpassage10_Cell1_0 <dbl>,
## #   GSM922251_hESCpassage10_Cell2_0 <dbl>,
## #   GSM922252_hESCpassage10_Cell3_0 <dbl>,
…
